%YAML 1.1
%TAG !u! tag:unity3d.com,2011:
--- !u!21 &2100000
Material:
  serializedVersion: 6
  m_ObjectHideFlags: 0
  m_CorrespondingSourceObject: {fileID: 0}
  m_PrefabInstance: {fileID: 0}
  m_PrefabAsset: {fileID: 0}
  m_Name: Shader Graphs_TextureColorShader
  m_Shader: {fileID: -6465566751694194690, guid: 4eb1f44eb34f42e49a77c758f06a4f7c,
    type: 3}
  m_ShaderKeywords: 
  m_LightmapFlags: 4
  m_EnableInstancingVariants: 0
  m_DoubleSidedGI: 0
  m_CustomRenderQueue: -1
  stringTagMap: {}
  disabledShaderPasses: []
  m_SavedProperties:
    serializedVersion: 3
    m_TexEnvs:
    - Texture2D_DC960151:
        m_Texture: {fileID: 2800000, guid: d99b89b562b3c4c4b8fd99d02ceee005, type: 3}
        m_Scale: {x: 1, y: 1}
        m_Offset: {x: 0, y: 0}
    - _SampleTexture2D_32705A87_Texture_1:
        m_Texture: {fileID: 2800000, guid: d99b89b562b3c4c4b8fd99d02ceee005, type: 3}
        m_Scale: {x: 1, y: 1}
        m_Offset: {x: 0, y: 0}
    m_Floats:
    - Vector1_23FB65F7: 0.189
    m_Colors:
    - Color_1AD82F8A: {r: 0.045389786, g: 0.6415094, b: 0.10998378, a: 0}
