%YAML 1.1
%TAG !u! tag:unity3d.com,2011:
--- !u!21 &2100000
Material:
  serializedVersion: 6
  m_ObjectHideFlags: 0
  m_CorrespondingSourceObject: {fileID: 0}
  m_PrefabInstance: {fileID: 0}
  m_PrefabAsset: {fileID: 0}
  m_Name: Shader Graphs_GrassSwayShaderGraph
  m_Shader: {fileID: -6465566751694194690, guid: 432f58664d2304c4dace20f361fb7714,
    type: 3}
  m_ShaderKeywords: 
  m_LightmapFlags: 4
  m_EnableInstancingVariants: 0
  m_DoubleSidedGI: 0
  m_CustomRenderQueue: -1
  stringTagMap:
    MotionVector: User
  disabledShaderPasses:
  - MOTIONVECTORS
  m_SavedProperties:
    serializedVersion: 3
    m_TexEnvs:
    - Texture2D_688D209D:
        m_Texture: {fileID: 2800000, guid: 786fab739e01a7444828bcae70239e04, type: 3}
        m_Scale: {x: 1, y: 1}
        m_Offset: {x: 0, y: 0}
    - Texture2D_C6A9D604:
        m_Texture: {fileID: 2800000, guid: 03add03d2f50c3d469b1ba6e59a8dde1, type: 3}
        m_Scale: {x: 1, y: 1}
        m_Offset: {x: 0, y: 0}
    - Texture2D_F6DF88AA:
        m_Texture: {fileID: 2800000, guid: 05dca7c0df04ac5418025179bdacb7c8, type: 3}
        m_Scale: {x: 1, y: 1}
        m_Offset: {x: 0, y: 0}
    m_Floats:
    - Vector1_12030046: 0.85
    - Vector1_48B10156: 0.59
    - Vector1_7EFEC333: 0.71
    - Vector1_D37DB03D: 0.61
    m_Colors:
    - Vector2_830893CA: {r: 0, g: 0.46, b: 0, a: 0}
    - Vector2_98403D3D: {r: 1, g: 0, b: 0, a: 0}
