%YAML 1.1
%TAG !u! tag:unity3d.com,2011:
--- !u!21 &2100000
Material:
  serializedVersion: 6
  m_ObjectHideFlags: 0
  m_CorrespondingSourceObject: {fileID: 0}
  m_PrefabInstance: {fileID: 0}
  m_PrefabAsset: {fileID: 0}
  m_Name: mat_zeldaHair_1
  m_Shader: {fileID: -6465566751694194690, guid: 5c968b81d065ae44c9f89827787c1d76,
    type: 3}
  m_ShaderKeywords: 
  m_LightmapFlags: 4
  m_EnableInstancingVariants: 0
  m_DoubleSidedGI: 0
  m_CustomRenderQueue: -1
  stringTagMap: {}
  disabledShaderPasses: []
  m_SavedProperties:
    serializedVersion: 3
    m_TexEnvs:
    - Texture2D_AD1EBFD5:
        m_Texture: {fileID: 2800000, guid: 1e7fc6d4c74f7fc418dfe41115513780, type: 3}
        m_Scale: {x: 1, y: 1}
        m_Offset: {x: 0, y: 0}
    - _BaseMap:
        m_Texture: {fileID: 2800000, guid: 39ef9aa93e4660f408b0ee55f4c06a53, type: 3}
        m_Scale: {x: 1, y: 1}
        m_Offset: {x: 0, y: 0}
    - _BumpMap:
        m_Texture: {fileID: 0}
        m_Scale: {x: 1, y: 1}
        m_Offset: {x: 0, y: 0}
    - _DetailAlbedoMap:
        m_Texture: {fileID: 0}
        m_Scale: {x: 1, y: 1}
        m_Offset: {x: 0, y: 0}
    - _DetailMask:
        m_Texture: {fileID: 0}
        m_Scale: {x: 1, y: 1}
        m_Offset: {x: 0, y: 0}
    - _DetailNormalMap:
        m_Texture: {fileID: 0}
        m_Scale: {x: 1, y: 1}
        m_Offset: {x: 0, y: 0}
    - _EmissionMap:
        m_Texture: {fileID: 0}
        m_Scale: {x: 1, y: 1}
        m_Offset: {x: 0, y: 0}
    - _MainTex:
        m_Texture: {fileID: 2800000, guid: 39ef9aa93e4660f408b0ee55f4c06a53, type: 3}
        m_Scale: {x: 1, y: 1}
        m_Offset: {x: 0, y: 0}
    - _MetallicGlossMap:
        m_Texture: {fileID: 0}
        m_Scale: {x: 1, y: 1}
        m_Offset: {x: 0, y: 0}
    - _OcclusionMap:
        m_Texture: {fileID: 0}
        m_Scale: {x: 1, y: 1}
        m_Offset: {x: 0, y: 0}
    - _ParallaxMap:
        m_Texture: {fileID: 0}
        m_Scale: {x: 1, y: 1}
        m_Offset: {x: 0, y: 0}
    - _SpecGlossMap:
        m_Texture: {fileID: 0}
        m_Scale: {x: 1, y: 1}
        m_Offset: {x: 0, y: 0}
    m_Floats:
    - Vector1_3BE4D3E4: 0
    - Vector1_4403C8A5: 0
    - Vector1_4CF6766: 0
    - Vector1_5CC624A6: 0
    - Vector1_81025898: 0.7
    - Vector1_88E7C9FE: 32
    - Vector1_AB21935: 0.751
    - Vector1_C6B6D1AE: 32
    - Vector1_CDF346A8: 0.5
    - Vector1_D5E5A8ED: 0.1
    - Vector1_D95C2D4B: 0.1
    - Vector1_DE621461: 0
    - Vector1_F0EB3C34: 0
    - _AlphaClip: 0
    - _Blend: 0
    - _BumpScale: 1
    - _Cull: 2
    - _Cutoff: 0.5
    - _DetailNormalMapScale: 1
    - _DsolveEdgeThickness: 0.01
    - _DsolveNoiseScale: 30
    - _DsolveValue: 0
    - _DstBlend: 0
    - _EnvironmentReflections: 1
    - _GlossMapScale: 1
    - _Glossiness: 0
    - _GlossyReflections: 1
    - _Metallic: 0
    - _Mode: 0
    - _OcclusionStrength: 1
    - _Parallax: 0.02
    - _QueueOffset: 0
    - _ReceiveShadows: 1
    - _Smoothness: 0
    - _SmoothnessTextureChannel: 0
    - _SpecularHighlights: 1
    - _SrcBlend: 1
    - _Surface: 0
    - _UVSec: 0
    - _WorkflowMode: 1
    - _ZWrite: 1
    m_Colors:
    - Color_396A74B3: {r: 0.5283019, g: 0.5283019, b: 0.5283019, a: 0}
    - Color_734162CC: {r: 0.5566037, g: 0.17065677, b: 0.17065677, a: 0}
    - Color_73D9CBC7: {r: 0.49056602, g: 0.49056602, b: 0.49056602, a: 0}
    - Color_756D49B9: {r: 1, g: 1, b: 1, a: 0}
    - Color_776ED517: {r: 1, g: 1, b: 1, a: 0}
    - Color_98C25760: {r: 6.870588, g: 6.243137, b: 6.243137, a: 0}
    - Color_A2C94295: {r: 2.40133, g: 2.299041, b: 2.299041, a: 0}
    - Color_C7C8F263: {r: 1, g: 1, b: 1, a: 0}
    - Color_D9EEE51A: {r: 0.7656097, g: 0.7656097, b: 0.7656097, a: 0}
    - Color_EA39B645: {r: 0.5471698, g: 0.5471698, b: 0.5471698, a: 0}
    - _BaseColor: {r: 1, g: 1, b: 1, a: 1}
    - _Color: {r: 1, g: 1, b: 1, a: 1}
    - _DsolveColor: {r: 0.9150943, g: 0.8325912, b: 0.0561143, a: 1}
    - _EmissionColor: {r: 0, g: 0, b: 0, a: 1}
    - _SpecColor: {r: 0.19999996, g: 0.19999996, b: 0.19999996, a: 1}
